XXXXXXXXXXXXXXXXXXXXXXXXXXXXXXXXXXXXXXXXX
X     X X X X     X     X X X           X
XXXXX X X X X XXXXX XXXXX X XXXXX X XXXXX
X       X X X   X     X           X X   X
XXX XXX X X X XXXXX X XXXXX XXXXX XXX XXX
X X X         X     X X   X X   X X     X
X XXXXX X X XXX XXXXXXX XXXXX XXX XXX X X
X       X X   X   X   X   X X X     X X X
XXXXXXXXX XXXXX XXXXX X XXX X XXX XXX XXX
X           X     X X X   X   X         X
XXX XXX X X XXX XXX X X XXXXX XXXXX X XXX
X X   X X X   X   X     X X X X   X X   X
X XXXXXXX X XXX XXXXXXX X X X XXX XXX XXX
X     X   X     X   X       X   X X X   X
X X XXXXXXX XXXXXXX XXX XXXXX XXX X X X X
X X   X X   X   X     X X X X X X   X X 0
XXX XXX XXX X XXX XXXXX X X X X X X X XXX
X     X           X X X   X     X X     X
X XXX XXXXX X XXX X X XXX XXX XXX XXX XXX
X X         X   X     X     X X X X   X X
X X XXXXX X X XXX X X XXX XXX X XXXXX X X
X X X     X X X   X X   X       X X   X X
XXX XXX XXXXXXXXXXXXX XXXXXXXXX X XXX X X
X X X   X   X   X X X   X X X X X   X   X
X XXX XXXXX XXX X X X XXX X X X XXX XXX X
X   X X   X   X X         X     X X X   X
X XXXXXXX XXX X XXXXXXXXX XXX XXX X XXX X
X X   X X X     X X                     X
X X XXX X X XXX X XXXXXXX X X X X X X XXX
X   X     X X   X X X X   X X X X X X   X
X XXXXX X XXXXX X X X XXXXXXXXXXXXX XXXXX
X     X X     X       X   X X X       X X
X XXX XXXXXXX XXX XXXXX X X X XXXXX XXX X
X X     X   X X X X   X X   X X X X X X X
XXXXX XXX XXX X X XXX XXXXX X X X X X X X
X X         X     X X X   X X   X X X X X
X X XXXXXXX XXX X X X X XXX XXX X X X X X
F   X X         X X X     X   X         X
XXXXX X X XXXXX XXX XXX XXXXX XXXXX XXX X
X       X X                           X X
XXXXXXXXXXXXXXXXXXXXXXXXXXXXXXXXXXXXXXXXX
